[gd_scene load_steps=3 format=2]

[ext_resource path="res://fonts/determination-mono.png" type="Texture" id=1]
[ext_resource path="res://scenes/TextChar.cs" type="Script" id=2]

[node name="TextChar" type="Sprite"]

z_index = 1
texture = ExtResource( 1 )
centered = false
vframes = 4
hframes = 26
script = ExtResource( 2 )
_sections_unfolded = [ "Animation", "Offset", "Transform", "Z Index" ]


